<svg xmlns="http://www.w3.org/2000/svg" viewBox="0 0 13 20">
  <defs>
    <style>
      .cls-1 {
        fill: #969eaa;
        font-size: 20px;
        font-family: FontAwesome;
      }
    </style>
  </defs>
  <text id="_" data-name="" class="cls-1" transform="translate(1)"><tspan x="-0.857" y="17"></tspan></text>
</svg>
